# XSI Wavefront OBJ Export v3.0
# File Created: Thu Jun 13 12:57:00 2013
# XSI Version: 12.0.921.0
mtllib ninja guardia_low.mtl

o polymsh
# Hierarchy (from self to top father)
g polymsh

#begin 98 vertices
v 44.999742 -0.001645 44.999445
v 44.999742 149.998343 44.999445
v 44.999742 -0.001645 -45.000551
v 44.999742 149.998343 -45.000551
v -45.000254 -0.001645 -45.000551
v -45.000254 149.998343 -45.000551
v -45.000254 -0.001645 44.999445
v -45.000254 149.998343 44.999445
v 44.999742 48.858739 44.999445
v 44.999742 48.858739 -45.000551
v -45.000254 48.858739 -45.000551
v 44.999742 25.673481 44.999445
v 44.999742 25.673481 -45.000551
v -45.000254 25.673481 -45.000551
v -45.000254 25.673481 44.999445
v 44.999742 72.358407 44.999445
v 44.999742 72.358407 -45.000551
v -45.000254 72.358407 -45.000551
v -45.000254 72.358407 44.999445
v 44.999742 101.413145 44.999445
v 44.999742 101.413145 -45.000551
v -45.000254 101.413145 -45.000551
v -45.000254 101.413145 44.999445
v 44.999742 128.006841 44.999445
v 44.999742 128.006841 -45.000551
v -45.000254 128.006841 -45.000551
v -45.000254 128.006841 44.999445
v -61.000251 101.413145 38.999444
v -45.000254 48.858739 44.999445
v -61.000251 101.413145 -39.000550
v -46.000253 72.358407 38.999444
v -61.000251 72.358407 38.999444
v -61.000251 72.358407 -39.000550
v -61.000251 54.858740 -39.000550
v -46.000253 54.858740 38.999444
v -46.000253 122.006840 38.999444
v -46.000253 122.006840 -39.000550
v 21.313737 130.288452 85.018230
v -46.000253 101.413145 38.999444
v -46.000253 101.413145 -39.000550
v 16.291899 129.640227 88.822341
v -46.000253 72.358407 -39.000550
v -4.068637 226.212065 103.982234
v 15.129208 226.214021 105.323502
v 16.301693 226.165082 88.541598
v -2.896153 226.163126 87.200330
v -46.000253 54.858740 -39.000550
v 27.931075 128.317400 110.518529
v 11.515901 74.456054 84.634370
v 29.661879 128.245185 85.745331
v 19.563760 130.361476 110.065859
v -61.000251 54.858740 38.999444
v 11.086309 76.364066 103.479600
v 23.931074 103.319021 104.298430
v 11.980921 76.326732 90.674915
v 24.825687 103.281686 91.493738
v 51.144897 90.189245 106.238033
v 52.039507 90.151904 93.433341
v -61.000251 122.006840 38.999444
v -61.000251 122.006840 -39.000550
v 17.033255 63.361170 90.155464
v 18.622991 89.901794 118.370955
v 18.850282 90.742208 94.231229
v 18.356348 62.502254 117.523953
v 44.838060 90.433139 92.929379
v 46.003665 89.676463 117.040199
v 45.737021 62.276937 116.193197
v -6.337939 71.502019 108.377674
v 9.785095 74.528282 109.407561
v 44.680572 90.535380 89.671703
v -4.594933 71.429278 83.429845
v -6.392598 129.699038 108.254322
v 44.413928 63.135847 88.824708
v 17.924213 90.355415 103.916546
v -4.642620 129.626013 83.206699
v -4.078433 129.687197 104.262977
v 15.119413 129.689153 105.604245
v 45.462276 90.027917 105.841483
v -2.905948 129.638272 87.481059
v 18.871797 90.852702 90.914931
v 39.912202 62.663143 105.533500
v 17.355789 90.521611 -80.465481
v 17.355789 63.107695 -80.465481
v 44.769708 63.107695 -80.465481
v 44.769708 90.521611 -80.465481
v 44.769708 63.107695 -107.879396
v 44.769708 90.521611 -107.879396
v 17.355789 63.107695 -107.879396
v 17.355789 90.521611 -107.879396
v 41.370980 61.969783 105.637440
v 42.265589 61.932448 92.832748
v 45.327279 73.392494 105.880551
v 44.662946 68.136573 94.380271
v 41.604155 62.643016 105.651768
v 42.644099 63.027793 92.859989
v 39.890787 63.061190 92.663538
v 17.162877 73.863754 91.044136
v 17.784834 73.180258 103.956881
#end 98 vertices

#begin 388 normals
vn 1.000000 0.000000 0.000000
vn 1.000000 0.000000 0.000000
vn 1.000000 0.000000 0.000000
vn 1.000000 0.000000 0.000000
vn 0.000000 -0.000000 -1.000000
vn 0.000000 0.000000 -1.000000
vn 0.000000 0.000000 -1.000000
vn 0.000000 -0.000000 -1.000000
vn -1.000000 -0.000000 0.000000
vn -1.000000 0.000000 0.000000
vn -1.000000 0.000000 0.000000
vn -1.000000 -0.000000 0.000000
vn 0.000000 0.000000 1.000000
vn 0.000000 0.000000 1.000000
vn 0.000000 0.000000 1.000000
vn 0.000000 0.000000 1.000000
vn -0.000000 1.000000 0.000000
vn -0.000000 1.000000 0.000000
vn -0.000000 1.000000 0.000000
vn -0.000000 1.000000 0.000000
vn -0.000000 -1.000000 0.000000
vn -0.000000 -1.000000 0.000000
vn -0.000000 -1.000000 0.000000
vn -0.000000 -1.000000 0.000000
vn 1.000000 0.000000 0.000000
vn 1.000000 0.000000 0.000000
vn 1.000000 0.000000 0.000000
vn 1.000000 0.000000 0.000000
vn 0.000000 0.000000 -1.000000
vn 0.000000 0.000000 -1.000000
vn 0.000000 0.000000 -1.000000
vn 0.000000 0.000000 -1.000000
vn 0.000000 0.000000 1.000000
vn 0.000000 0.000000 1.000000
vn 0.000000 0.000000 1.000000
vn 0.000000 0.000000 1.000000
vn 1.000000 0.000000 0.000000
vn 1.000000 0.000000 0.000000
vn 1.000000 0.000000 0.000000
vn 1.000000 0.000000 0.000000
vn 0.000000 0.000000 -1.000000
vn 0.000000 0.000000 -1.000000
vn 0.000000 0.000000 -1.000000
vn 0.000000 0.000000 -1.000000
vn -1.000000 0.000000 0.000000
vn -0.996956 -0.055133 0.055133
vn -0.996956 -0.055133 -0.055133
vn -1.000000 0.000000 0.000000
vn 0.000000 0.000000 1.000000
vn 0.000000 -0.000000 1.000000
vn 0.000000 -0.000000 1.000000
vn 0.000000 0.000000 1.000000
vn 0.000000 0.000000 1.000000
vn 0.000000 0.000000 1.000000
vn 0.000000 0.000000 1.000000
vn 0.000000 0.000000 1.000000
vn 1.000000 0.000000 0.000000
vn 1.000000 0.000000 0.000000
vn 1.000000 0.000000 0.000000
vn 1.000000 0.000000 0.000000
vn 0.000000 0.000000 -1.000000
vn 0.000000 0.000000 -1.000000
vn 0.000000 0.000000 -1.000000
vn 0.000000 0.000000 -1.000000
vn 0.000000 0.000000 1.000000
vn 0.000000 0.000000 1.000000
vn 0.000000 0.000000 1.000000
vn 0.000000 0.000000 1.000000
vn 1.000000 0.000000 0.000000
vn 1.000000 0.000000 0.000000
vn 1.000000 0.000000 0.000000
vn 1.000000 0.000000 0.000000
vn 0.000000 0.000000 -1.000000
vn 0.000000 0.000000 -1.000000
vn 0.000000 0.000000 -1.000000
vn 0.000000 0.000000 -1.000000
vn 0.000000 0.000000 1.000000
vn 0.000000 0.000000 1.000000
vn 0.000000 0.000000 1.000000
vn 0.000000 0.000000 1.000000
vn 1.000000 0.000000 0.000000
vn 1.000000 0.000000 0.000000
vn 1.000000 0.000000 0.000000
vn 1.000000 0.000000 0.000000
vn 0.000000 0.000000 -1.000000
vn 0.000000 -0.000000 -1.000000
vn 0.000000 -0.000000 -1.000000
vn 0.000000 0.000000 -1.000000
vn -0.996956 0.055133 0.055133
vn -1.000000 -0.000000 0.000000
vn -1.000000 -0.000000 0.000000
vn -0.996956 0.055133 -0.055133
vn -0.996956 -0.055133 0.055133
vn -0.986394 0.000000 0.164399
vn -0.986394 0.000000 0.164399
vn -0.993127 -0.082761 0.082761
vn -0.986394 0.000000 0.164399
vn -0.986394 0.000000 0.164399
vn -0.986394 0.000000 0.164399
vn -0.986394 0.000000 0.164399
vn -0.986394 0.000000 0.164399
vn -0.996956 0.055133 0.055133
vn -0.993127 0.082761 0.082760
vn -0.986394 0.000000 0.164399
vn -0.996956 0.055133 0.055133
vn -0.996956 0.055133 -0.055133
vn -0.993127 0.082761 -0.082760
vn -0.993127 0.082761 0.082760
vn -0.996956 0.055133 -0.055133
vn -0.986394 0.000000 -0.164399
vn -0.986394 0.000000 -0.164399
vn -0.993127 0.082761 -0.082760
vn -0.986394 0.000000 -0.164399
vn -0.986394 0.000000 -0.164399
vn -0.986394 0.000000 -0.164399
vn -0.986394 0.000000 -0.164399
vn -0.986394 0.000000 -0.164399
vn -0.996956 -0.055133 -0.055133
vn -0.993127 -0.082761 -0.082761
vn -0.986394 0.000000 -0.164399
vn -0.996956 -0.055133 -0.055133
vn -0.996956 -0.055133 0.055133
vn -0.993127 -0.082761 0.082761
vn -0.993127 -0.082761 -0.082761
vn 0.000101 0.999996 -0.002909
vn 0.000101 0.999996 -0.002909
vn 0.000101 0.999996 -0.002909
vn 0.000101 0.999996 -0.002909
vn 0.026911 0.999344 0.024233
vn -0.078656 0.996477 0.029107
vn -0.073440 0.996259 -0.045543
vn 0.030424 0.999198 -0.026054
vn -0.069696 0.002908 0.997564
vn -0.069696 0.002908 0.997564
vn -0.069696 0.002908 0.997564
vn -0.069696 0.002908 0.997564
vn 0.997568 0.000101 0.069696
vn 0.997568 0.000101 0.069696
vn 0.997568 0.000101 0.069696
vn 0.997568 0.000101 0.069696
vn 0.069696 -0.002908 -0.997564
vn 0.069696 -0.002908 -0.997564
vn 0.069696 -0.002908 -0.997564
vn 0.069696 -0.002908 -0.997564
vn -0.997568 -0.000101 -0.069696
vn -0.997568 -0.000101 -0.069696
vn -0.997568 -0.000101 -0.069696
vn -0.997568 -0.000101 -0.069696
vn 0.013662 0.999393 0.032043
vn 0.013662 0.999393 0.032043
vn 0.013558 0.999351 0.033385
vn 0.993604 -0.112841 -0.004318
vn 0.944222 -0.319795 0.078593
vn 0.944222 -0.319795 0.078593
vn 0.993632 -0.112465 -0.006910
vn 0.078372 -0.006389 -0.996904
vn 0.789887 -0.188637 -0.583520
vn 0.750924 -0.496329 -0.435626
vn 0.236592 0.971512 0.013698
vn 0.026911 0.999344 0.024233
vn 0.030424 0.999198 -0.026054
vn 0.236592 0.971512 0.013698
vn 0.936523 -0.339619 -0.087087
vn 0.901985 -0.431683 -0.008531
vn 0.900905 -0.431642 0.045343
vn 0.750924 -0.496329 -0.435626
vn 0.936523 -0.339619 -0.087087
vn 0.900905 -0.431642 0.045343
vn 0.750924 -0.496329 -0.435626
vn 0.789887 -0.188637 -0.583520
vn 0.936523 -0.339619 -0.087087
vn 0.929507 -0.258422 0.263123
vn 0.929507 -0.258422 0.263123
vn 0.936523 -0.339619 -0.087087
vn 0.789887 -0.188637 -0.583520
vn 0.724867 -0.659705 0.198386
vn 0.884182 -0.388363 0.259609
vn 0.929507 -0.258422 0.263123
vn 0.929507 -0.258422 0.263123
vn -0.427535 -0.903589 -0.027236
vn -0.427535 -0.903589 -0.027236
vn -0.427535 -0.903589 -0.027236
vn -0.427535 -0.903589 -0.027236
vn 0.028615 -0.086333 -0.995855
vn -0.051374 -0.189576 -0.980521
vn 0.009219 -0.096846 -0.995257
vn 0.068443 -0.034127 -0.997071
vn 0.067122 -0.065314 -0.995605
vn 0.028615 -0.086333 -0.995855
vn 0.009219 -0.096846 -0.995257
vn 0.068443 -0.034127 -0.997071
vn 0.028615 -0.086333 -0.995855
vn 0.432774 0.901080 0.027609
vn 0.432774 0.901080 0.027609
vn 0.432774 0.901080 0.027609
vn 0.432774 0.901080 0.027609
vn -0.069690 0.002906 0.997564
vn -0.069696 0.002908 0.997564
vn -0.069692 0.002907 0.997564
vn -0.069696 0.002908 0.997564
vn -0.069696 0.002908 0.997564
vn -0.069696 0.002908 0.997564
vn -0.069690 0.002906 0.997564
vn -0.069690 0.002906 0.997564
vn -0.069692 0.002907 0.997564
vn -0.069692 0.002907 0.997564
vn -0.069696 0.002908 0.997564
vn -0.069696 0.002908 0.997564
vn -0.069690 0.002906 0.997564
vn 0.900905 -0.431642 0.045343
vn 0.900700 -0.429740 0.063746
vn 0.750924 -0.496329 -0.435626
vn 0.064410 -0.014068 -0.997824
vn -0.253473 0.030226 -0.966870
vn -0.710316 0.026356 -0.703389
vn -0.061014 -0.000572 0.998137
vn -0.061014 -0.000572 0.998137
vn -0.054561 -0.002217 0.998508
vn 0.750924 -0.496329 -0.435626
vn 0.724867 -0.659705 0.198386
vn 0.183486 -0.982897 0.015685
vn 0.183486 -0.982897 0.015685
vn 0.030424 0.999198 -0.026054
vn -0.073440 0.996259 -0.045543
vn -0.004551 0.999162 -0.040668
vn -0.004551 0.999162 -0.040668
vn -0.009757 0.999380 0.033841
vn -0.009757 0.999380 0.033841
vn -0.078656 0.996477 0.029107
vn 0.026911 0.999344 0.024233
vn 0.750924 -0.496329 -0.435626
vn 0.900700 -0.429740 0.063746
vn 0.884182 -0.388363 0.259609
vn 0.724867 -0.659705 0.198386
vn 0.078372 -0.006389 -0.996904
vn 0.750924 -0.496329 -0.435626
vn 0.071926 -0.004744 -0.997399
vn 0.071926 -0.004744 -0.997399
vn -0.009757 0.999380 0.033841
vn -0.004551 0.999162 -0.040668
vn -0.004551 0.999162 -0.040668
vn -0.009757 0.999380 0.033841
vn -0.997568 -0.001085 -0.069693
vn -0.997568 -0.001085 -0.069693
vn -0.997568 -0.001085 -0.069693
vn -0.997568 -0.001085 -0.069693
vn -0.067465 0.001073 0.997721
vn -0.067465 0.001073 0.997721
vn -0.061014 -0.000572 0.998137
vn -0.061014 -0.000572 0.998137
vn -1.000000 -0.000000 0.000000
vn -1.000000 -0.000000 0.000000
vn -1.000000 -0.000000 0.000000
vn -1.000000 -0.000000 0.000000
vn -0.000000 -1.000000 0.000000
vn -0.000000 -1.000000 0.000000
vn -0.000000 -1.000000 0.000000
vn -0.000000 -1.000000 0.000000
vn 0.000000 0.000000 1.000000
vn 0.000000 0.000000 1.000000
vn 0.000000 0.000000 1.000000
vn 0.000000 0.000000 1.000000
vn -0.000000 1.000000 0.000000
vn -0.000000 1.000000 0.000000
vn -0.000000 1.000000 0.000000
vn -0.000000 1.000000 0.000000
vn 1.000000 0.000000 0.000000
vn 1.000000 0.000000 0.000000
vn 1.000000 0.000000 0.000000
vn 1.000000 0.000000 0.000000
vn 0.000000 -0.000000 -1.000000
vn 0.000000 -0.000000 -1.000000
vn 0.000000 -0.000000 -1.000000
vn 0.000000 -0.000000 -1.000000
vn 0.942475 -0.327537 0.066785
vn 0.942475 -0.327537 0.066785
vn 0.942475 -0.327537 0.066785
vn 0.942475 -0.327537 0.066785
vn 0.013662 0.999393 0.032043
vn 0.013662 0.999393 0.032043
vn 0.013767 0.999434 0.030701
vn -0.009736 -0.999475 -0.030908
vn -0.009697 -0.999475 -0.030902
vn -0.009697 -0.999475 -0.030902
vn -0.152141 -0.987894 -0.030309
vn -0.152141 -0.987894 -0.030309
vn -0.427535 -0.903588 -0.027235
vn -0.427535 -0.903588 -0.027235
vn -0.152135 -0.987895 -0.030301
vn 0.071172 0.000212 -0.997464
vn 0.071172 0.000212 -0.997464
vn 0.071172 0.000212 -0.997464
vn -0.069696 0.002908 0.997564
vn -0.069696 0.002908 0.997564
vn -0.069696 0.002908 0.997564
vn 0.993632 -0.112465 -0.006910
vn 0.998787 -0.008219 -0.048543
vn 0.998787 -0.008219 -0.048543
vn 0.998751 -0.006584 -0.049525
vn 0.998930 -0.007163 -0.045689
vn 0.999120 -0.009378 -0.040871
vn 0.999120 -0.009378 -0.040871
vn 0.993604 -0.112841 -0.004318
vn 0.993604 -0.112841 -0.004318
vn 0.993632 -0.112465 -0.006910
vn 0.998751 -0.006584 -0.049525
vn 0.998930 -0.007163 -0.045689
vn -0.998787 0.008219 0.048543
vn -0.998787 0.008219 0.048543
vn -0.998787 0.008219 0.048543
vn -0.998787 0.008219 0.048543
vn -0.998787 0.008219 0.048543
vn -0.710316 0.026356 -0.703389
vn -0.566430 0.042924 -0.822991
vn -0.998787 0.008219 0.048543
vn -0.047989 0.031052 -0.998365
vn -0.048264 0.031331 -0.998343
vn -0.566430 0.042924 -0.822991
vn 0.009727 0.999475 0.030896
vn 0.009727 0.999475 0.030896
vn 0.009727 0.999475 0.030896
vn 0.009727 0.999475 0.030896
vn -0.152141 -0.987894 -0.030309
vn -0.152135 -0.987895 -0.030301
vn -0.009727 -0.999475 -0.030897
vn -0.009736 -0.999475 -0.030908
vn -0.009688 -0.999476 -0.030890
vn -0.009727 -0.999475 -0.030897
vn -0.152135 -0.987895 -0.030301
vn -0.009688 -0.999476 -0.030890
vn -0.009688 -0.999476 -0.030890
vn -0.009688 -0.999476 -0.030890
vn -0.009697 -0.999475 -0.030902
vn -0.009697 -0.999475 -0.030902
vn 0.048264 -0.031331 0.998343
vn 0.048264 -0.031331 0.998343
vn 0.048264 -0.031331 0.998343
vn 0.048264 -0.031331 0.998343
vn -0.253473 0.030226 -0.966870
vn -0.047989 0.031052 -0.998365
vn -0.566430 0.042924 -0.822991
vn -0.710316 0.026356 -0.703389
vn -0.253473 0.030226 -0.966870
vn -0.566430 0.042924 -0.822991
vn 0.000000 1.000000 -0.000000
vn 0.000000 1.000000 -0.000000
vn 0.000000 1.000000 -0.000000
vn 0.000000 1.000000 -0.000000
vn 0.000000 0.000000 -1.000000
vn 0.000000 0.000000 -1.000000
vn 0.000000 0.000000 -1.000000
vn 0.000000 0.000000 -1.000000
vn 0.000000 0.000000 -1.000000
vn 0.000000 0.000000 -1.000000
vn 0.000000 0.000000 -1.000000
vn 0.000000 0.000000 -1.000000
vn 0.000000 0.000000 -1.000000
vn 0.000000 0.000000 -1.000000
vn 0.000000 0.000000 -1.000000
vn 0.000000 0.000000 -1.000000
vn 0.000000 -1.000000 -0.000000
vn 0.000000 -1.000000 -0.000000
vn 0.000000 -1.000000 -0.000000
vn 0.000000 -1.000000 -0.000000
vn -1.000000 -0.000000 0.000000
vn -1.000000 0.000000 0.000000
vn -1.000000 0.000000 0.000000
vn -1.000000 -0.000000 0.000000
vn -1.000000 0.000000 0.000000
vn -1.000000 0.000000 0.000000
vn -1.000000 0.000000 0.000000
vn -1.000000 0.000000 0.000000
vn -1.000000 0.000000 0.000000
vn -1.000000 -0.000000 0.000000
vn -1.000000 -0.000000 0.000000
vn -1.000000 0.000000 0.000000
vn 0.000000 0.000000 1.000000
vn 0.000000 0.000000 1.000000
vn 0.000000 0.000000 1.000000
vn 0.000000 0.000000 1.000000
vn 0.000000 0.000000 1.000000
vn 0.000000 0.000000 1.000000
vn 0.000000 0.000000 1.000000
vn 0.000000 0.000000 1.000000
vn 0.000000 0.000000 1.000000
vn 0.000000 0.000000 1.000000
vn 0.000000 0.000000 1.000000
vn 0.000000 0.000000 1.000000
#end 388 vertex normals

#begin texture vertices
vt 0.614514 0.469228 0.000000
vt 0.764169 0.000000 0.000000
vt 0.374139 0.459774 0.000000
vt 0.224483 0.469905 0.000000
vt 0.000000 0.459774 0.000000
vt 0.390030 0.000000 0.000000
vt 0.764169 0.234614 0.000000
vt 0.764169 0.224483 0.000000
vt 0.390030 0.469228 0.000000
vt 0.224483 0.694388 0.000000
vt 0.390030 0.224483 0.000000
vt 0.390030 0.234614 0.000000
vt 0.374538 0.000384 0.000000
vt 0.764169 0.459097 0.000000
vt 0.390030 0.693711 0.000000
vt 0.000000 0.694388 0.000000
vt 0.390030 0.459097 0.000000
vt 0.000000 0.000383 0.000000
vt 0.374534 0.224814 0.000000
vt 0.614514 0.693711 0.000000
vt 0.374139 0.235291 0.000000
vt 0.000000 0.235291 0.000000
vt 0.000000 0.469905 0.000000
vt 0.000005 0.224756 0.000000
vt 0.252268 0.459774 0.000000
vt 0.642299 0.000000 0.000000
vt 0.642299 0.234614 0.000000
vt 0.642299 0.224483 0.000000
vt 0.252696 0.000381 0.000000
vt 0.642299 0.459097 0.000000
vt 0.700129 0.000000 0.000000
vt 0.310098 0.459774 0.000000
vt 0.700129 0.224483 0.000000
vt 0.700129 0.234614 0.000000
vt 0.700129 0.459097 0.000000
vt 0.310513 0.000382 0.000000
vt 0.310098 0.235291 0.000000
vt 0.310509 0.224813 0.000000
vt 0.193654 0.459774 0.000000
vt 0.583684 0.000000 0.000000
vt 0.583684 0.224483 0.000000
vt 0.583684 0.234614 0.000000
vt 0.193955 0.000008 0.000000
vt 0.583684 0.459097 0.000000
vt 0.193934 0.225160 0.000000
vt 0.193654 0.235291 0.000000
vt 0.121184 0.459774 0.000000
vt 0.511214 0.000000 0.000000
vt 0.511214 0.224483 0.000000
vt 0.511214 0.234614 0.000000
vt 0.121299 0.000000 0.000000
vt 0.511214 0.459097 0.000000
vt 0.121280 0.225160 0.000000
vt 0.121184 0.235291 0.000000
vt 0.054853 0.459774 0.000000
vt 0.444883 0.000000 0.000000
vt 0.444883 0.224483 0.000000
vt 0.444883 0.234614 0.000000
vt 0.054826 0.000382 0.000000
vt 0.444883 0.459097 0.000000
vt 0.054831 0.224755 0.000000
vt 0.054853 0.235291 0.000000
vt 0.833383 0.663780 0.000000
vt 0.252692 0.224812 0.000000
vt 0.252268 0.235291 0.000000
vt 0.833383 0.469228 0.000000
vt 0.905853 0.701194 0.000000
vt 0.193892 0.209955 0.000000
vt 0.905853 0.663780 0.000000
vt 0.905853 0.469228 0.000000
vt 0.949502 0.469228 0.000000
vt 0.237539 0.209746 0.000000
vt 0.949502 0.701194 0.000000
vt 0.986916 0.663780 0.000000
vt 0.069988 0.209698 0.000000
vt 0.744603 0.663780 0.000000
vt 0.782017 0.701194 0.000000
vt 0.069977 0.015450 0.000000
vt 0.782017 0.431814 0.000000
vt 0.744603 0.469228 0.000000
vt 0.681541 0.907945 0.000000
vt 0.057520 0.907631 0.000000
vt 0.056960 0.907851 0.000000
vt 0.121322 0.209957 0.000000
vt 0.833383 0.701194 0.000000
vt 0.121339 0.015203 0.000000
vt 0.833383 0.431814 0.000000
vt 0.243889 0.749219 0.000000
vt 0.069071 0.917993 0.000000
vt 0.069447 0.917989 0.000000
vt 0.193910 0.015214 0.000000
vt 0.905853 0.431814 0.000000
vt 0.486474 0.839682 0.000000
vt 0.462528 0.793389 0.000000
vt 0.484572 0.753541 0.000000
vt 0.533737 0.801266 0.000000
vt 0.485434 0.705555 0.000000
vt 0.486474 0.882092 0.000000
vt 0.237536 0.015437 0.000000
vt 0.986916 0.469228 0.000000
vt 0.949502 0.431814 0.000000
vt 0.552121 0.846268 0.000000
vt 0.036445 0.970471 0.000000
vt 0.162091 0.955330 0.000000
vt 0.952282 0.928636 0.000000
vt 0.541783 0.929378 0.000000
vt 0.616064 0.703842 0.000000
vt 0.618119 0.845690 0.000000
vt 0.683403 0.929378 0.000000
vt 0.035457 0.908537 0.000000
vt 0.057959 0.970471 0.000000
vt 0.163953 0.933897 0.000000
vt 0.949502 0.663780 0.000000
vt 0.786332 0.999772 0.000000
vt 0.567579 0.709353 0.000000
vt 0.860836 1.000000 0.000000
vt 0.569415 0.783629 0.000000
vt 0.600640 0.709192 0.000000
vt 0.754317 0.999586 0.000000
vt 0.892852 1.000000 0.000000
vt 0.600037 0.783074 0.000000
vt 0.860836 0.924479 0.000000
vt 0.892852 0.924479 0.000000
vt 0.782017 0.663780 0.000000
vt 0.782017 0.469228 0.000000
vt 0.048121 0.704519 0.000000
vt 0.407754 0.892223 0.000000
vt 0.145282 0.704519 0.000000
vt 0.145284 0.801219 0.000000
vt 0.100287 0.761134 0.000000
vt 0.592673 0.749330 0.000000
vt 0.928161 0.999501 0.000000
vt 0.193633 0.752868 0.000000
vt 0.339377 0.892223 0.000000
vt 0.193635 0.849568 0.000000
vt 0.054334 0.806973 0.000000
vt 0.900028 0.941009 0.000000
vt 0.909839 0.918465 0.000000
vt 0.096935 0.849571 0.000000
vt 0.339377 0.960600 0.000000
vt 0.048586 0.897922 0.000000
vt 0.145286 0.897919 0.000000
vt 0.943995 0.711378 0.000000
vt 0.993279 0.866476 0.000000
vt 0.323765 0.919572 0.000000
vt 0.552121 0.704172 0.000000
vt 0.303710 0.955330 0.000000
vt 0.952282 0.866695 0.000000
vt 0.048578 0.801218 0.000000
vt 0.521729 0.893619 0.000000
vt 0.993279 0.928855 0.000000
vt 0.881617 0.711325 0.000000
vt 0.122877 0.969911 0.000000
vt 0.943995 0.856537 0.000000
vt 0.186298 0.872944 0.000000
vt 0.407754 0.960600 0.000000
vt 0.000000 0.753097 0.000000
vt 0.000234 0.849574 0.000000
vt 0.825190 0.999506 0.000000
vt 0.119748 0.775684 0.000000
vt 0.122439 0.907285 0.000000
vt 0.659195 0.846991 0.000000
vt 0.881367 0.856483 0.000000
vt 0.243136 0.839682 0.000000
vt 0.117740 0.959613 0.000000
vt 0.243136 0.791166 0.000000
vt 0.069740 0.959948 0.000000
vt 0.854312 0.937108 0.000000
vt 0.077151 0.829787 0.000000
vt 0.847545 0.919441 0.000000
vt 0.244751 0.701233 0.000000
vt 0.117447 0.917653 0.000000
vt 0.243136 0.882092 0.000000
vt 0.600886 0.749420 0.000000
vt 0.094122 0.755612 0.000000
vt 0.095466 0.751900 0.000000
vt 0.714211 0.999344 0.000000
vt 0.366652 0.947372 0.000000
vt 0.505835 0.842202 0.000000
vt 0.501691 0.837848 0.000000
vt 0.816436 0.808025 0.000000
vt 0.768086 0.759675 0.000000
vt 0.816436 0.711325 0.000000
vt 0.719736 0.711325 0.000000
vt 0.864786 0.856375 0.000000
vt 0.864786 0.759675 0.000000
vt 0.671386 0.662975 0.000000
vt 0.671386 0.759675 0.000000
vt 0.671386 0.856375 0.000000
vt 0.816436 0.904725 0.000000
vt 0.623035 0.711325 0.000000
vt 0.719736 0.904725 0.000000
vt 0.719736 0.808025 0.000000
vt 0.768086 0.856375 0.000000
vt 0.501811 0.841883 0.000000
vt 0.499284 0.873800 0.000000
vt 0.860836 0.880133 0.000000
vt 0.048803 0.860089 0.000000
vt 0.889382 0.866623 0.000000
vt 0.018884 0.849977 0.000000
vt 0.366153 0.951573 0.000000
vt 0.500039 0.841743 0.000000
vt 0.496402 0.873562 0.000000
vt 0.499371 0.876690 0.000000
vt 0.397911 0.955705 0.000000
vt 0.398734 0.948869 0.000000
vt 0.505835 0.874318 0.000000
vt 0.754400 0.985245 0.000000
vt 0.127713 0.724079 0.000000
vt 0.786440 0.981235 0.000000
vt 0.151032 0.746415 0.000000
#end 211 texture vertices

#begin 102 faces
usemtl scene_material
f 3/8/1 13/33/2 12/31/3 1/2/4 
usemtl scene_material
f 5/14/5 14/35/6 13/34/7 3/7/8 
usemtl scene_material
f 7/19/9 15/38/10 14/36/11 5/13/12 
usemtl scene_material
f 24/55/13 2/5/14 8/22/15 27/62/16 
usemtl scene_material
f 4/10/17 6/16/18 8/23/19 2/4/20 
usemtl scene_material
f 5/15/21 3/9/22 1/1/23 7/20/24 
usemtl scene_material
f 10/28/25 17/41/26 16/40/27 9/26/28 
usemtl scene_material
f 11/30/29 18/44/30 17/42/31 10/27/32 
usemtl scene_material
f 29/65/33 15/37/34 12/32/35 9/25/36 
usemtl scene_material
f 13/33/37 10/28/38 9/26/39 12/31/40 
usemtl scene_material
f 14/35/41 11/30/42 10/27/43 13/34/44 
usemtl scene_material
f 15/38/45 29/64/46 11/29/47 14/36/48 
usemtl scene_material
f 15/37/49 7/21/50 1/3/51 12/32/52 
usemtl scene_material
f 19/46/53 29/65/54 9/25/55 16/39/56 
usemtl scene_material
f 17/41/57 21/49/58 20/48/59 16/40/60 
usemtl scene_material
f 18/44/61 22/52/62 21/50/63 17/42/64 
usemtl scene_material
f 23/54/65 19/46/66 16/39/67 20/47/68 
usemtl scene_material
f 21/49/69 25/57/70 24/56/71 20/48/72 
usemtl scene_material
f 22/52/73 26/60/74 25/58/75 21/50/76 
usemtl scene_material
f 27/62/77 23/54/78 20/47/79 24/55/80 
usemtl scene_material
f 25/57/81 4/11/82 2/6/83 24/56/84 
usemtl scene_material
f 26/60/85 6/17/86 4/12/87 25/58/88 
usemtl scene_material
f 27/61/89 8/24/90 6/18/91 26/59/92 
usemtl scene_material
f 29/64/93 19/45/94 31/68/95 35/72/96 
usemtl scene_material
f 19/45/97 23/53/98 39/84/99 31/68/100 
usemtl scene_material
f 23/53/101 27/61/102 36/75/103 39/84/104 
usemtl scene_material
f 27/61/105 26/59/106 37/78/107 36/75/108 
usemtl scene_material
f 26/59/109 22/51/110 40/86/111 37/78/112 
usemtl scene_material
f 22/51/113 18/43/114 42/91/115 40/86/116 
usemtl scene_material
f 18/43/117 11/29/118 47/99/119 42/91/120 
usemtl scene_material
f 11/29/121 29/64/122 35/72/123 47/99/124 
usemtl scene_material
f 44/94/125 45/95/126 46/96/127 43/93/128 
usemtl scene_material
f 38/83/129 41/89/130 77/167/131 51/111/132 
usemtl scene_material
f 77/166/133 44/94/134 43/93/135 76/164/136 
usemtl scene_material
f 41/88/137 45/95/138 44/94/139 77/166/140 
usemtl scene_material
f 79/171/141 46/97/142 45/95/143 41/88/144 
usemtl scene_material
f 76/164/145 43/93/146 46/98/147 79/173/148 
usemtl scene_material
f 65/136/149 80/175/150 63/130/151 
usemtl scene_material
f 93/199/152 58/123/153 57/122/154 92/197/155 
usemtl scene_material
f 38/81/156 50/109/157 49/106/158 
usemtl scene_material
f 50/110/159 38/83/160 51/111/161 48/103/162 
usemtl scene_material
f 56/121/163 63/131/164 80/174/165 
usemtl scene_material
f 49/107/166 56/121/167 80/174/168 
usemtl scene_material
f 49/107/169 50/108/170 56/121/171 
usemtl scene_material
f 48/102/172 54/117/173 56/121/174 50/108/175 
usemtl scene_material
f 69/146/176 53/115/177 54/117/178 48/102/179 
usemtl scene_material
f 98/210/180 53/114/181 55/119/182 97/208/183 
usemtl scene_material
f 65/137/184 63/132/185 56/120/186 
usemtl scene_material
f 58/123/187 93/199/188 65/138/189 
usemtl scene_material
f 56/120/190 58/123/191 65/137/192 
usemtl scene_material
f 54/116/193 57/122/194 58/123/195 56/120/196 
usemtl scene_material
f 53/114/197 98/210/198 74/159/199 
usemtl scene_material
f 78/170/200 92/197/201 57/122/202 
usemtl scene_material
f 54/116/203 53/114/204 74/159/205 
usemtl scene_material
f 74/159/206 78/168/207 57/122/208 54/116/209 
usemtl scene_material
f 80/174/210 55/118/211 49/107/212 
usemtl scene_material
f 55/119/213 80/177/214 97/208/215 
usemtl scene_material
f 51/112/216 69/147/217 48/104/218 
usemtl scene_material
f 49/105/219 69/148/220 68/144/221 71/151/222 
usemtl scene_material
f 51/111/223 77/167/224 76/165/225 72/153/226 
usemtl scene_material
f 75/161/227 79/172/228 41/90/229 38/82/230 
usemtl scene_material
f 49/107/231 55/118/232 53/115/233 69/146/234 
usemtl scene_material
f 38/81/235 49/106/236 71/150/237 75/162/238 
usemtl scene_material
f 75/161/239 72/153/240 76/165/241 79/172/242 
usemtl scene_material
f 75/163/243 71/152/244 68/143/245 72/154/246 
usemtl scene_material
f 72/155/247 68/145/248 69/147/249 51/112/250 
usemtl scene_material
f 83/182/251 82/181/252 89/194/253 88/193/254 
usemtl scene_material
f 88/193/255 86/188/256 84/184/257 83/182/258 
usemtl scene_material
f 84/183/259 85/186/260 82/181/261 83/182/262 
usemtl scene_material
f 87/190/263 89/194/264 82/181/265 85/185/266 
usemtl scene_material
f 86/188/267 87/191/268 85/187/269 84/184/270 
usemtl scene_material
f 88/193/271 89/194/272 87/192/273 86/189/274 
usemtl scene_material
f 95/203/275 94/202/276 90/195/277 91/196/278 
usemtl scene_material
f 80/175/279 65/136/280 70/149/281 
usemtl scene_material
f 61/127/282 73/156/283 95/205/284 96/206/285 
usemtl scene_material
f 96/207/286 91/196/287 90/195/288 81/179/289 
usemtl scene_material
f 95/204/290 91/196/291 96/207/292 
usemtl scene_material
f 81/180/293 90/195/294 94/202/295 
usemtl scene_material
f 92/198/296 78/169/297 66/139/298 67/141/299 
usemtl scene_material
f 73/158/300 70/149/301 65/136/302 93/200/303 
usemtl scene_material
f 93/200/304 92/198/305 67/141/306 73/158/307 
usemtl scene_material
f 62/129/308 74/160/309 98/211/310 64/133/311 
usemtl scene_material
f 98/211/312 97/209/313 61/128/314 64/133/315 
usemtl scene_material
f 70/149/316 73/157/317 61/126/318 
usemtl scene_material
f 74/160/319 62/129/320 66/139/321 78/169/322 
usemtl scene_material
f 96/206/323 81/178/324 64/134/325 61/127/326 
usemtl scene_material
f 67/140/327 64/134/328 81/178/329 94/201/330 
usemtl scene_material
f 67/140/331 94/201/332 95/205/333 73/156/334 
usemtl scene_material
f 66/139/335 62/129/336 64/135/337 67/142/338 
usemtl scene_material
f 80/175/339 70/149/340 61/126/341 
usemtl scene_material
f 97/209/342 80/176/343 61/128/344 
usemtl scene_material
f 36/76/345 37/80/346 60/125/347 59/124/348 
usemtl scene_material
f 42/92/349 47/101/350 34/71/351 33/70/352 
usemtl scene_material
f 37/79/353 40/87/354 30/66/355 60/125/356 
usemtl scene_material
f 40/87/357 42/92/358 33/70/359 30/66/360 
usemtl scene_material
f 47/100/361 35/74/362 52/113/363 34/71/364 
usemtl scene_material
f 52/113/365 32/69/366 33/70/367 34/71/368 
usemtl scene_material
f 32/69/369 28/63/370 30/66/371 33/70/372 
usemtl scene_material
f 28/63/373 59/124/374 60/125/375 30/66/376 
usemtl scene_material
f 35/73/377 31/67/378 32/69/379 52/113/380 
usemtl scene_material
f 31/67/381 39/85/382 28/63/383 32/69/384 
usemtl scene_material
f 39/85/385 36/77/386 59/124/387 28/63/388 
#end 102 faces
